1 ,  -88.702
2 ,  -88.702
3 ,  -88.702
4 ,  -88.702
5 , -87.9656
6 ,  -87.9656
7 ,  -87.9656
8 ,  -87.9656
9 ,  -87.9656
10 ,  -87.9656
11 ,  -87.9656
12 ,  -87.9656
13 ,  -87.9656
14 ,  -87.9656
15 ,  -87.9656
16 ,  -87.9656
17 ,  -87.9656
18 ,  -87.9656
19 ,  -87.9656
20 ,  -87.9656
21 ,  -87.9656
22 ,  -87.9656
23 ,  -87.9656
24 ,  -87.9656
25 ,  -87.9656
26 ,  -87.9656
27 ,  -87.9656
28 ,  -87.9656
29 ,  -87.9656
30 ,  -87.9656
31 ,  -87.9656
32 ,  -87.9656
33 ,  -87.9656
34 ,  -87.9656
35 ,  -87.9656
36 ,  -87.9656
37 ,  -87.9656
38 ,  -87.9656
39 ,  -87.9656
40 ,  -87.9656
41 ,  -87.9656
42 ,  -87.9656
43 ,  -87.9656
44 ,  -87.9656
45 ,  -87.9656
46 ,  -87.9656
47 ,  -87.9656
48 ,  -87.9656
49 ,  -87.9656
50 ,  -87.9656
51 ,  -87.9656
52 ,  -87.9656
53 ,  -87.9656
54 ,  -87.9656
55 ,  -87.9656
56 ,  -87.9656
57 ,  -87.9656
58 ,  -87.9656
59 ,  -87.9656
60 ,  -87.9656
61 ,  -87.9656
62 ,  -87.9656
63 ,  -87.9656
64 ,  -87.9656
65 ,  -87.9656
66 ,  -87.9656
67 ,  -87.9656
68 ,  -87.9656
69 ,  -87.9656
70 ,  -87.9656
71 ,  -87.9656
72 ,  -87.9656
73 ,  -87.9656
74 ,  -87.9656
75 ,  -87.9656
76 ,  -87.9656
77 ,  -87.9656
78 ,  -87.9656
79 ,  -87.9656
80 ,  -87.9656
81 ,  -87.9656
82 ,  -87.9656
83 ,  -87.9656
84 ,  -87.9656
85 ,  -87.9656
86 ,  -87.9656
87 ,  -87.9656
88 ,  -87.9656
89 ,  -87.9656
90 ,  -87.9656
91 ,  -87.9656
92 ,  -87.9656
93 ,  -87.9656
94 ,  -87.9656
95 ,  -87.9656
96 ,  -87.9656
97 ,  -87.9656
98 ,  -87.9656
99 ,  -87.9656
100 ,  -87.9656
101 ,  -87.9656
102 ,  -87.9656
103 ,  -87.9656
104 ,  -87.9656
105 ,  -87.9656
106 ,  -87.9656
107 ,  -87.9656
108 ,  -87.9656
109 ,  -87.9656
110 ,  -87.9656
111 ,  -87.9656
112 ,  -87.9656
113 ,  -87.9656
114 ,  -87.9656
115 ,  -87.9656
116 ,  -87.9656
117 ,  -87.9656
118 ,  -87.9656
119 ,  -87.9656
120 ,  -87.9656
121 ,  -87.9656
122 ,  -87.9656
123 ,  -87.9656
124 ,  -87.9656
125 ,  -87.9656
126 ,  -87.9656
127 ,  -87.9656
128 ,  -87.9656
129 ,  -87.9656
130 ,  -87.9656
131 ,  -87.9656
132 ,  -87.9656
133 ,  -87.9656
134 ,  -87.9656
135 ,  -87.9656
136 ,  -87.9656
137 ,  -87.9656
138 ,  -87.9656
139 ,  -87.9656
140 ,  -87.9656
141 ,  -87.9656
142 ,  -87.9656
143 ,  -87.9656
144 ,  -87.9656
145 ,  -87.9656
146 ,  -87.9656
147 ,  -87.9656
148 ,  -87.9656
149 ,  -87.9656
150 ,  -87.9656
151 ,  -87.9656
152 ,  -87.9656
153 ,  -87.9656
154 ,  -87.9656
155 ,  -87.9656
156 ,  -87.9656
157 ,  -87.9656
158 ,  -87.9656
159 ,  -87.9656
160 ,  -87.9656
161 ,  -87.9656
162 ,  -87.9656
163 ,  -87.9656
164 ,  -87.9656
165 ,  -87.9656
166 ,  -87.9656
167 ,  -87.9656
168 ,  -87.9656
169 ,  -87.9656
170 ,  -87.9656
171 ,  -87.9656
172 ,  -87.9656
173 ,  -87.9656
174 ,  -87.9656
175 ,  -87.9656
176 ,  -87.9656
177 ,  -87.9656
178 ,  -87.9656
179 ,  -87.9656
180 ,  -87.9656
181 ,  -87.9656
182 ,  -87.9656
183 ,  -87.9656
184 ,  -87.9656
185 ,  -87.9656
186 ,  -87.9656
187 ,  -87.9656
188 ,  -87.9656
189 ,  -87.9656
190 ,  -87.9656
191 ,  -87.9656
192 ,  -87.9656
193 ,  -87.9656
194 ,  -87.9656
195 ,  -87.9656
196 ,  -87.9656
197 ,  -87.9656
198 ,  -87.9656
199 ,  -87.9656
200 ,  -87.9656
201 ,  -87.9656
202 ,  -87.9656
203 ,  -87.9656
204 ,  -87.9656
205 ,  -87.9656
206 ,  -87.9656
207 ,  -87.9656
208 ,  -87.9656
209 ,  -87.9656
210 ,  -87.9656
211 ,  -87.9656
212 ,  -87.9656
213 ,  -87.9656
214 ,  -87.9656
215 ,  -87.9656
216 ,  -87.9656
217 ,  -87.9656
218 ,  -87.9656
219 ,  -87.9656
220 ,  -87.9656
221 ,  -87.9656
222 ,  -87.9656
223 ,  -87.9656
224 ,  -87.9656
225 ,  -87.9656
226 ,  -87.9656
227 ,  -87.9656
228 ,  -87.9656
229 ,  -87.9656
230 ,  -87.9656
231 ,  -87.9656
232 ,  -87.9656
233 ,  -87.9656
234 ,  -87.9656
235 ,  -87.9656
236 ,  -87.9656
237 ,  -87.9656
238 ,  -87.9656
239 ,  -87.9656
240 ,  -87.9656
241 ,  -87.9656
242 ,  -87.9656
243 ,  -87.9656
244 ,  -87.9656
245 ,  -87.9656
246 ,  -87.9656
247 ,  -87.9656
248 ,  -87.9656
249 ,  -87.9656
250 , -117.839

251 , -108.754
252 , -108.754
253 , -108.754
254 , -108.754
255 , -108.754
256 , -108.754
257 , -108.754
258 , -108.754
259 , -108.754
260 , -108.754
261 , -108.754
262 , -108.754
263 , -108.754
264 , -108.754
265 , -108.754
266 , -108.754
267 , -108.754
268 , -108.754
269 , -108.754
270 , -108.754
271 , -108.754
272 , -108.754
273 , -108.754
274 , -108.754
275 , -108.754
276 , -108.754
277 , -108.754
278 , -108.754
279 , -108.754
280 , -108.754
281 , -108.754
282 , -108.754
283 , -108.754
284 , -108.754
285 , -108.754
286 , -108.754
287 , -108.754
288 , -108.754
289 , -108.754
290 , -108.754
291 , -108.754
292 , -108.754
293 , -108.754
294 , -108.754
295 , -108.754
296 , -108.754
297 , -108.754
298 , -108.754
299 , -119.479
300 , -119.479
301 , -119.479
302 , -119.479
303 , -119.479
304 , -119.479
305 , -119.479
306 , -119.479
307 , -119.479
308 , -119.479
309 , -119.479
310 , -119.479
311 , -119.479
312 , -119.479
313 , -119.479
314 , -119.479
315 , -119.479
316 , -119.479
317 , -119.479
318 , -119.479
319 , -119.479
320 , -119.479
321 , -119.479
322 , -119.479
323 , -119.479
324 , -119.479
325 , -119.479
326 , -119.479
327 , -119.479
328 , -119.479
329 , -119.479
330 , -119.479
331 , -119.479
332 , -119.479
333 , -119.479
334 , -119.479
335 , -119.479
336 , -119.479
337 , -119.479
338 , -119.479
339 , -119.479
340 , -119.479
341 , -119.479
342 , -119.479
343 , -119.479
344 , -119.479
345 , -119.479
346 , -119.479
347 , -119.479
348 , -119.479
349 , -119.479
350 , -119.479
351 , -119.479
352 , -119.479
353 , -119.479
354 , -119.479
355 , -119.06
356 , -119.06
357 , -119.06
358 , -119.06
359 , -119.06
360 , -119.06
361 , -119.06
362 , -119.06
363 , -119.06
364 , -119.06
365 , -119.06
366 , -119.06
367 , -119.06
368 , -119.06
369 , -119.06
370 , -119.06
371 , -119.06
372 , -119.06
373 , -119.06
374 , -119.06
375 , -119.06
376 , -119.06
377 , -119.06
378 , -119.06
379 , -119.06
380 , -119.06
381 , -119.06
382 , -119.06
383 , -119.06
384 , -119.06
385 , -119.06
386 , -119.06
387 , -119.06
388 , -119.06
389 , -119.06
390 , -119.06
391 , -119.06
392 , -119.06
393 , -119.06
394 , -119.06
395 , -119.06
396 , -119.06
397 , -119.06
398 , -119.06
399 , -119.06
400 , -119.06
401 , -119.06
402 , -119.06
403 , -119.06
404 , -119.06
405 , -119.06
406 , -119.06
407 , -119.06
408 , -119.06
409 , -119.06
410 , -119.06
411 , -119.06
412 , -119.06
413 , -119.06
414 , -119.06
415 , -119.06
416 , -119.06
417 , -119.06
418 , -119.06
419 , -119.06
420 , -119.06
421 , -119.06
422 , -119.06
423 , -119.06
424 , -119.06
425 , -119.06
426 , -119.06
427 , -119.06
428 , -119.06
429 , -119.06
430 , -119.06
431 , -119.06
432 , -119.06
433 , -119.06
434 , -119.06
435 , -119.06
436 , -119.06
437 , -119.06
438 , -119.06
439 , -119.06
440 , -119.06
441 , -119.06
442 , -119.06
443 , -119.06
444 , -119.06
445 , -119.06
446 , -119.06
447 , -119.06
448 , -119.06
449 , -119.06
450 , -119.06
451 , -119.06
452 , -119.06
453 , -119.06
454 , -119.06
455 , -119.06
456 , -119.06
457 , -119.06
458 , -119.06
459 , -119.601
460 , -119.601
461 , -119.601
462 , -119.601
463 , -119.601
464 , -119.601
465 , -119.601
466 , -119.601
467 , -119.601
468 , -119.601
469 , -119.601
470 , -119.601
471 , -119.601
472 , -119.601
473 , -119.601
474 , -119.601
475 , -119.601
476 , -119.601
477 , -119.601
478 , -119.601
479 , -119.601
480 , -119.601
481 , -119.601
482 , -119.601
483 , -119.601
484 , -119.601
485 , -119.601
486 , -119.601
487 , -119.601
488 , -119.601
489 , -119.601
490 , -119.601
491 , -119.601
492 , -119.601
493 , -119.601
494 , -119.601
495 , -119.601
496 , -119.601
497 , -119.601
498 , -119.601
499 , -119.601
500 , -119.601
501 , -119.601
502 , -119.601
503 , -119.601
504 , -119.601
505 , -119.601
506 , -119.601
507 , -119.601
508 , -119.601
509 , -119.601
510 , -119.601
511 , -119.601
512 , -119.601
513 , -119.601
514 , -119.601
515 , -119.601
516 , -119.601
517 , -119.601
518 , -119.601
519 , -119.601
520 , -119.601
521 , -119.601
522 , -119.601
523 , -119.601
524 , -119.601
525 , -119.601
526 , -119.601
527 , -119.601
528 , -119.601
529 , -119.601
530 , -119.601
531 , -119.601
532 , -119.601
533 , -119.601
534 , -119.601
535 , -119.601
536 , -119.601
537 , -119.601
538 , -119.601
539 , -119.601
540 , -119.601
541 , -119.601
542 , -119.601
543 , -119.601
544 , -119.601
545 , -119.601
546 , -119.601
547 , -119.601
548 , -119.601
549 , -119.601
550 , -119.601
551 , -119.601
552 , -119.601
553 , -119.601
554 , -119.601
555 , -119.601
556 , -119.601
557 , -119.601
558 , -119.601
559 , -119.601
560 , -119.601
561 , -119.601
562 , -119.601
563 , -119.601
564 , -119.601
565 , -119.601
566 , -119.601
567 , -119.601
568 , -119.601
569 , -119.601
570 , -119.601
571 , -119.601
572 , -119.601
573 , -119.601
574 , -119.185
575 , -119.185
576 , -119.185
577 , -119.185
578 , -119.185
579 , -119.185
580 , -119.185
581 , -119.185
582 , -119.185
583 , -119.185
584 , -119.185
585 , -119.185
586 , -119.185
587 , -119.185
588 , -119.185
589 , -119.185
590 , -119.185
591 , -119.185
592 , -119.185
593 , -119.185
594 , -119.185
595 , -119.185
596 , -119.185
597 , -119.185
598 , -119.185
599 , -119.185
600 , -119.185
601 , -119.185
602 , -119.185
603 , -119.185
604 , -119.185
605 , -119.185
606 , -119.185
607 , -119.185
608 , -119.185
609 , -119.185
610 , -119.185
611 , -119.185
612 , -119.185
613 , -119.185
614 , -119.185
615 , -119.185
616 , -119.185
617 , -119.185
618 , -119.185
619 , -119.185
620 , -119.185
621 , -119.185
622 , -119.185
623 , -119.185
624 , -119.185
625 , -119.185
626 , -119.185
627 , -119.185
628 , -119.185
629 , -119.185
630 , -119.185
631 , -119.185
632 , -119.185
633 , -119.185
634 , -119.185
635 , -119.185
636 , -119.185
637 , -119.185
638 , -119.185
639 , -119.185
640 , -119.185
641 , -119.185
642 , -119.185
643 , -119.185
644 , -119.185
645 , -119.185
646 , -119.185
647 , -119.185
648 , -119.185
649 , -119.185
650 , -119.185
651 , -119.185
652 , -119.185
653 , -119.185
654 , -119.185
655 , -119.185
656 , -119.185
657 , -119.185
658 , -119.185
659 , -119.185
660 , -119.185
661 , -119.185
662 , -119.185
663 , -119.185
664 , -119.185
665 , -119.185
666 , -119.185
667 , -119.185
668 , -119.185
669 , -119.185
670 , -119.185
671 , -119.185
672 , -119.185
673 , -119.185
674 , -119.185
675 , -119.185
676 , -119.185
677 , -119.185
678 , -119.185
679 , -119.185
680 , -119.185
681 , -119.185
682 , -119.185
683 , -119.185
684 , -119.185
685 , -119.185
686 , -119.185
687 , -119.185
688 , -119.185
689 , -119.185
690 , -119.185
691 , -119.185
692 , -119.185
693 , -119.185
694 , -119.185
695 , -119.185
696 , -119.185
697 , -119.185
698 , -119.185
699 , -119.185
700 , -119.185
701 , -119.185
702 , -119.185
703 , -119.185
704 , -119.185
705 , -119.185
706 , -119.185
707 , -119.185
708 , -119.185
709 , -119.185
710 , -119.185
711 , -119.185
712 , -119.185
713 , -119.185
714 , -119.185
715 , -119.185
716 , -119.185
717 , -119.185
718 , -119.185
719 , -119.185
720 , -119.185
721 , -119.185
722 , -119.185
723 , -119.185
724 , -119.185
725 , -119.185
726 , -119.185
727 , -119.185
728 , -119.185
729 , -119.185
730 , -119.185
731 , -119.185
732 , -119.185
733 , -119.185
734 , -119.185
735 , -119.185
736 , -119.185
737 , -119.185
738 , -119.185
739 , -119.185
740 , -119.185
741 , -119.185
742 , -119.185
743 , -119.185
744 , -119.185
745 , -119.185
746 , -119.185
747 , -119.185
748 , -119.185
749 , -119.185
750 , -119.185
751 , -119.185
752 , -119.185
753 , -119.185
754 , -119.185
755 , -125.734
756 , -125.734
757 , -125.734
758 , -125.734
759 , -125.734
760 , -125.734
761 , -125.734
762 , -125.734
763 , -125.734
764 , -125.734
765 , -125.734
766 , -125.734
767 , -125.734
768 , -125.734
769 , -125.734
770 , -125.734
771 , -125.734
772 , -125.734
773 , -125.734
774 , -125.734
775 , -125.734
776 , -125.734
777 , -125.734
778 , -125.734
779 , -125.734
780 , -125.734
781 , -125.734
782 , -125.734
783 , -125.734
784 , -125.734
785 , -125.734
786 , -125.734
787 , -125.734
788 , -125.734
789 , -125.734
790 , -125.734
791 , -125.734
792 , -125.734
793 , -125.734
794 , -125.734
795 , -125.734
796 , -125.734
797 , -125.734
798 , -125.734
799 , -125.734
800 , -125.734
801 , -125.734
802 , -125.734
803 , -125.734
804 , -125.734
805 , -125.734
806 , -125.734
807 , -125.734
808 , -125.734
809 , -125.734
810 , -125.734
811 , -125.734
812 , -125.734
813 , -125.734
814 , -125.734
815 , -125.734
816 , -125.734
817 , -125.734
818 , -125.734
819 , -125.734
820 , -125.734
821 , -125.734
822 , -125.734
823 , -125.734
824 , -125.734
825 , -125.734
826 , -125.734
827 , -125.734
828 , -125.734
829 , -125.734
830 , -125.734
831 , -125.734
832 , -125.734
833 , -125.734
834 , -125.734
835 , -125.734
836 , -125.734
837 , -125.734
838 , -125.734
839 , -125.734
840 , -125.734
841 , -125.734
842 , -125.734
843 , -125.734
844 , -125.734
845 , -125.734
846 , -125.734
847 , -125.734
848 , -125.734
849 , -125.734
850 , -125.734
851 , -125.734
852 , -125.734
853 , -125.734
854 , -125.734
855 , -125.734
856 , -125.734
857 , -125.734
858 , -125.734
859 , -125.734
860 , -125.734
861 , -125.734
862 , -125.734
863 , -125.898
864 , -125.898
865 , -125.898
866 , -125.898
867 , -125.898
868 , -125.898
869 , -125.898
870 , -125.898
871 , -125.898
872 , -125.898
873 , -125.898
874 , -125.898
875 , -125.898
876 , -125.898
877 , -125.898
878 , -125.898
879 , -125.898
880 , -125.898
881 , -125.898
882 , -125.898
883 , -125.898
884 , -125.898
885 , -125.898
886 , -125.898
887 , -125.898
888 , -125.898
889 , -125.898
890 , -125.898
891 , -125.898
892 , -125.898
893 , -125.898
894 , -125.898
895 , -125.898
896 , -125.898
897 , -125.898
898 , -125.898
899 , -125.898
900 , -125.898
901 , -125.898
902 , -125.898
903 , -125.898
904 , -125.898
905 , -125.898
906 , -125.898
907 , -125.898
908 , -125.898
909 , -125.898
910 , -125.898
911 , -125.898
912 , -125.898
913 , -125.898
914 , -125.898
915 , -125.898
916 , -125.898
917 , -125.898
918 , -125.898
919 , -125.898
920 , -125.898
921 , -125.898
922 , -125.898
923 , -125.898
924 , -125.898
925 , -125.898
926 , -125.898
927 , -125.898
928 , -125.898
929 , -125.898
930 , -125.898
931 , -125.898
932 , -125.898
933 , -125.898
934 , -125.898
935 , -125.898
936 , -125.898
937 , -125.898
938 , -125.898
939 , -125.898
940 , -125.898
941 , -125.898
942 , -125.898
943 , -125.898
944 , -125.898
945 , -125.724
946 , -125.724
947 , -125.724
948 , -125.724
949 , -125.724
950 , -125.724
951 , -125.724
952 , -125.724
953 , -125.724
954 , -125.724
955 , -125.724
956 , -125.724
957 , -125.724
958 , -125.724
959 , -125.724
960 , -125.724
961 , -125.724
962 , -125.724
963 , -125.724
964 , -125.724
965 , -125.724
966 , -125.724
967 , -125.724
968 , -125.724
969 , -125.724
970 , -125.724
971 , -125.724
972 , -125.724
973 , -125.724
974 , -125.724
975 , -125.724
976 , -125.724
977 , -125.724
978 , -125.724
979 , -125.724
980 , -125.724
981 , -125.724
982 , -125.724
983 , -125.724
984 , -125.724
985 , -125.724
986 , -125.724
987 , -125.724
988 , -125.724
989 , -125.724
990 , -125.724
991 , -125.724
992 , -125.724
993 , -125.724
994 , -125.724
995 , -125.724
996 , -125.724
997 , -125.724
998 , -125.724
999 , -125.724
1000 , -125.724
1001 , -125.724
1002 , -125.724
1003 , -125.724
1004 , -125.724
1005 , -125.724
1006 , -125.724
1007 , -125.724
1008 , -125.724
1009 , -125.724
1010 , -125.724
1011 , -125.724
1012 , -125.724
1013 , -125.724
1014 , -125.724
1015 , -125.724
1016 , -125.724
1017 , -125.724
1018 , -125.724
1019 , -125.724
1020 , -125.724
1021 , -125.724
1022 , -125.724
1023 , -125.724
1024 , -125.724
1025 , -125.724
1026 , -125.724
1027 , -125.724
1028 , -125.724
1029 , -125.724
1030 , -125.724
1031 , -125.724
1032 , -125.724
1033 , -125.724
1034 , -125.724
1035 , -125.724
1036 , -125.724
1037 , -125.724
1038 , -125.724
1039 , -125.724
1040 , -125.724
1041 , -125.724
1042 , -125.724
1043 , -125.724
1044 , -125.724
1045 , -125.724
1046 , -125.724
1047 , -125.724
1048 , -125.724
1049 , -125.724
1050 , -125.724
1051 , -125.724
1052 , -125.724
1053 , -125.724
1054 , -125.724
1055 , -125.724
1056 , -125.724
1057 , -125.724
1058 , -125.724
1059 , -125.724
1060 , -125.724
1061 , -125.724
1062 , -125.724
1063 , -125.724
1064 , -125.724
1065 , -125.724
1066 , -125.724
1067 , -125.724
1068 , -125.724
1069 , -125.724
1070 , -125.724
1071 , -125.499
