1 ,  -88.1206
2 ,  -88.1206
3 ,  -88.1206
4 ,  -88.1206
5 , -88.2718
6 ,  -88.2718
7 ,  -88.2718
8 ,  -88.2718
9 ,  -88.2718
10 ,  -88.2718
11 ,  -88.2718
12 ,  -88.2718
13 ,  -88.2718
14 ,  -88.2718
15 ,  -88.2718
16 ,  -88.2718
17 ,  -88.2718
18 ,  -88.2718
19 ,  -88.2718
20 ,  -88.2718
21 ,  -88.2718
22 ,  -88.2718
23 ,  -88.2718
24 ,  -88.2718
25 ,  -88.2718
26 ,  -88.2718
27 ,  -88.2718
28 ,  -88.2718
29 ,  -88.2718
30 ,  -88.2718
31 ,  -88.2718
32 ,  -88.2718
33 ,  -88.2718
34 ,  -88.2718
35 ,  -88.2718
36 ,  -88.2718
37 ,  -88.2718
38 ,  -88.2718
39 ,  -88.2718
40 ,  -88.2718
41 ,  -88.2718
42 ,  -88.2718
43 ,  -88.2718
44 ,  -88.2718
45 ,  -88.2718
46 ,  -88.2718
47 ,  -88.2718
48 ,  -88.2718
49 ,  -88.2718
50 ,  -88.2718
51 ,  -88.2718
52 ,  -88.2718
53 ,  -88.2718
54 ,  -88.2718
55 ,  -88.2718
56 ,  -88.2718
57 ,  -88.2718
58 ,  -88.2718
59 ,  -88.2718
60 ,  -88.2718
61 ,  -88.2718
62 ,  -88.2718
63 ,  -88.2718
64 ,  -88.2718
65 ,  -88.2718
66 ,  -88.2718
67 ,  -88.2718
68 ,  -88.2718
69 ,  -88.2718
70 ,  -88.2718
71 ,  -88.2718
72 ,  -88.2718
73 ,  -88.2718
74 ,  -88.2718
75 ,  -88.2718
76 ,  -88.2718
77 ,  -88.2718
78 ,  -88.2718
79 ,  -88.2718
80 ,  -88.2718
81 ,  -88.2718
82 ,  -88.2718
83 ,  -88.2718
84 ,  -88.2718
85 ,  -88.2718
86 ,  -88.2718
87 ,  -88.2718
88 ,  -88.2718
89 ,  -88.2718
90 ,  -88.2718
91 ,  -88.2718
92 ,  -88.2718
93 ,  -88.2718
94 ,  -88.2718
95 ,  -88.2718
96 ,  -88.2718
97 ,  -88.2718
98 ,  -88.2718
99 ,  -88.2718
100 ,  -88.2718
101 ,  -88.2718
102 ,  -88.2718
103 ,  -88.2718
104 ,  -88.2718
105 ,  -88.2718
106 ,  -88.2718
107 ,  -88.2718
108 ,  -88.2718
109 ,  -88.2718
110 ,  -88.2718
111 ,  -88.2718
112 ,  -88.2718
113 ,  -88.2718
114 ,  -88.2718
115 ,  -88.2718
116 ,  -88.2718
117 ,  -88.2718
118 ,  -88.2718
119 ,  -88.2718
120 ,  -88.2718
121 ,  -88.2718
122 ,  -88.2718
123 ,  -88.2718
124 ,  -88.2718
125 ,  -88.2718
126 ,  -88.2718
127 ,  -88.2718
128 ,  -88.2718
129 ,  -88.2718
130 ,  -88.2718
131 ,  -88.2718
132 ,  -88.2718
133 ,  -88.2718
134 ,  -88.2718
135 ,  -88.2718
136 ,  -88.2718
137 ,  -88.2718
138 ,  -88.2718
139 ,  -88.2718
140 ,  -88.2718
141 ,  -88.2718
142 ,  -88.2718
143 ,  -88.2718
144 ,  -88.2718
145 ,  -88.2718
146 ,  -88.2718
147 ,  -88.2718
148 ,  -88.2718
149 ,  -88.2718
150 ,  -88.2718
151 ,  -88.2718
152 ,  -88.2718
153 ,  -88.2718
154 ,  -88.2718
155 ,  -88.2718
156 ,  -88.2718
157 ,  -88.2718
158 ,  -88.2718
159 ,  -88.2718
160 ,  -88.2718
161 ,  -88.2718
162 ,  -88.2718
163 ,  -88.2718
164 ,  -88.2718
165 ,  -88.2718
166 ,  -88.2718
167 ,  -88.2718
168 ,  -88.2718
169 ,  -88.2718
170 ,  -88.2718
171 ,  -88.2718
172 ,  -88.2718
173 ,  -88.2718
174 ,  -88.2718
175 ,  -88.2718
176 ,  -88.2718
177 ,  -88.2718
178 ,  -88.2718
179 ,  -88.2718
180 ,  -88.2718
181 ,  -88.2718
182 ,  -88.2718
183 ,  -88.2718
184 ,  -88.2718
185 ,  -88.2718
186 ,  -88.2718
187 ,  -88.2718
188 ,  -88.2718
189 ,  -88.2718
190 ,  -88.2718
191 ,  -88.2718
192 ,  -88.2718
193 ,  -88.2718
194 ,  -88.2718
195 ,  -88.2718
196 ,  -88.2718
197 ,  -88.2718
198 ,  -88.2718
199 ,  -88.2718
200 ,  -88.2718
201 ,  -88.2718
202 ,  -88.2718
203 ,  -88.2718
204 ,  -88.2718
205 ,  -88.2718
206 ,  -88.2718
207 ,  -88.2718
208 ,  -88.2718
209 ,  -88.2718
210 ,  -88.2718
211 ,  -88.2718
212 ,  -88.2718
213 ,  -88.2718
214 ,  -88.2718
215 ,  -88.2718
216 ,  -88.2718
217 ,  -88.2718
218 ,  -88.2718
219 ,  -88.2718
220 ,  -88.2718
221 ,  -88.2718
222 ,  -88.2718
223 ,  -88.2718
224 ,  -88.2718
225 ,  -88.2718
226 ,  -88.2718
227 ,  -88.2718
228 ,  -88.2718
229 ,  -88.2718
230 ,  -88.2718
231 ,  -88.2718
232 ,  -88.2718
233 ,  -88.2718
234 ,  -88.2718
235 ,  -88.2718
236 ,  -88.2718
237 ,  -88.2718
238 ,  -88.2718
239 ,  -88.2718
240 ,  -88.2718
241 ,  -88.2718
242 ,  -88.2718
243 ,  -88.2718
244 ,  -88.2718
245 ,  -88.2718
246 ,  -88.2718
247 ,  -88.2718
248 ,  -88.2718
249 ,  -88.2718
250 , -91.0813

251 , -82.3289
252 , -82.3289
253 , -82.3289
254 , -82.3289
255 , -82.3289
256 , -82.3289
257 , -82.3289
258 , -82.3289
259 , -82.3289
260 , -82.3289
261 , -82.3289
262 , -82.3289
263 , -82.3289
264 , -82.3289
265 , -82.3289
266 , -82.3289
267 , -82.3289
268 , -82.3289
269 , -82.3289
270 , -82.3289
271 , -82.3289
272 , -82.3289
273 , -82.3289
274 , -82.3289
275 , -82.3289
276 , -82.3289
277 , -82.3289
278 , -82.3289
279 , -82.3289
280 , -82.3289
281 , -82.3289
282 , -82.3289
283 , -82.3289
284 , -82.3289
285 , -82.3289
286 , -82.3289
287 , -82.3289
288 , -82.3289
289 , -82.3289
290 , -82.3289
291 , -82.3289
292 , -82.3289
293 , -82.3289
294 , -82.3289
295 , -82.3289
296 , -82.3289
297 , -82.3289
298 , -82.3289
299 , -82.3289
300 , -82.3289
301 , -82.3289
302 , -82.3289
303 , -82.3289
304 , -82.3289
305 , -82.3289
306 , -90.448
307 , -90.448
308 , -90.448
309 , -90.448
310 , -90.448
311 , -90.448
312 , -90.448
313 , -90.448
314 , -90.448
315 , -90.448
316 , -90.448
317 , -90.448
318 , -90.448
319 , -90.448
320 , -90.448
321 , -90.448
322 , -90.448
323 , -90.448
324 , -90.448
325 , -90.448
326 , -90.448
327 , -90.448
328 , -90.448
329 , -90.448
330 , -90.448
331 , -90.448
332 , -90.448
333 , -90.448
334 , -90.448
335 , -90.448
336 , -90.448
337 , -90.448
338 , -90.448
339 , -90.448
340 , -90.448
341 , -90.448
342 , -90.448
343 , -90.448
344 , -90.448
345 , -90.448
346 , -90.448
347 , -90.448
348 , -90.448
349 , -90.448
350 , -90.448
351 , -90.448
352 , -90.448
353 , -90.448
354 , -90.448
355 , -90.448
356 , -90.448
357 , -90.448
358 , -90.448
359 , -90.448
360 , -90.448
361 , -90.448
362 , -90.448
363 , -90.448
364 , -90.448
365 , -90.448
366 , -91.3342
367 , -91.3342
368 , -91.3342
369 , -91.3342
370 , -91.3342
371 , -91.3342
372 , -91.3342
373 , -91.3342
374 , -91.3342
375 , -91.3342
376 , -91.3342
377 , -91.3342
378 , -91.3342
379 , -91.3342
380 , -91.3342
381 , -91.3342
382 , -91.3342
383 , -91.3342
384 , -91.3342
385 , -91.3342
386 , -91.3342
387 , -91.3342
388 , -91.3342
389 , -91.3342
390 , -91.3342
391 , -91.3342
392 , -91.3342
393 , -91.3342
394 , -91.3342
395 , -91.3342
396 , -91.3342
397 , -91.3342
398 , -91.3342
399 , -91.3342
400 , -91.3342
401 , -91.3342
402 , -91.3342
403 , -91.3342
404 , -91.3342
405 , -91.3342
406 , -91.3342
407 , -91.3342
408 , -91.3342
409 , -91.3342
410 , -91.3342
411 , -91.3342
412 , -91.3342
413 , -91.3342
414 , -91.3342
415 , -91.3342
416 , -91.3342
417 , -91.3342
418 , -91.3342
419 , -91.3342
420 , -91.3342
421 , -91.3342
422 , -91.3342
423 , -91.3342
424 , -91.3342
425 , -91.3342
426 , -91.3342
427 , -91.3342
428 , -91.3342
429 , -91.3342
430 , -91.3342
431 , -91.3342
432 , -91.3342
433 , -91.3342
434 , -91.3342
435 , -91.3342
436 , -91.3342
437 , -91.3342
438 , -91.3342
439 , -91.3342
440 , -91.3342
441 , -91.3342
442 , -91.3342
443 , -91.3342
444 , -91.3342
445 , -91.3342
446 , -91.3342
447 , -91.3342
448 , -91.3342
449 , -91.3342
450 , -91.3342
451 , -91.3342
452 , -91.3342
453 , -91.3342
454 , -91.3342
455 , -91.3342
456 , -91.3342
457 , -91.3342
458 , -91.3342
459 , -91.3342
460 , -91.3342
461 , -91.3342
462 , -91.3342
463 , -91.3342
464 , -91.3342
465 , -91.3342
466 , -91.3342
467 , -91.3342
468 , -91.3342
469 , -103.817
470 , -103.817
471 , -103.817
472 , -103.817
473 , -103.817
474 , -103.817
475 , -103.817
476 , -103.817
477 , -103.817
478 , -103.817
479 , -103.817
480 , -103.817
481 , -103.817
482 , -103.817
483 , -103.817
484 , -103.817
485 , -103.817
486 , -103.817
487 , -103.817
488 , -103.817
489 , -103.817
490 , -103.817
491 , -103.817
492 , -103.817
493 , -103.817
494 , -103.817
495 , -103.817
496 , -103.817
497 , -103.817
498 , -103.817
499 , -103.817
500 , -103.817
501 , -103.817
502 , -103.817
503 , -103.817
504 , -103.817
505 , -103.817
506 , -103.817
507 , -103.817
508 , -103.817
509 , -103.817
510 , -103.817
511 , -103.817
512 , -103.817
513 , -103.817
514 , -103.817
515 , -103.817
516 , -103.817
517 , -103.817
518 , -103.817
519 , -103.817
520 , -103.817
521 , -103.817
522 , -103.817
523 , -103.817
524 , -103.817
525 , -103.817
526 , -103.817
527 , -103.817
528 , -103.817
529 , -103.817
530 , -103.817
531 , -103.817
532 , -103.817
533 , -103.817
534 , -103.817
535 , -103.817
536 , -103.817
537 , -103.817
538 , -103.817
539 , -103.817
540 , -103.817
541 , -103.817
542 , -103.817
543 , -103.817
544 , -103.817
545 , -103.817
546 , -103.817
547 , -103.817
548 , -103.817
549 , -103.817
550 , -103.817
551 , -103.817
552 , -103.817
553 , -103.817
554 , -103.817
555 , -103.817
556 , -103.817
557 , -103.817
558 , -103.817
559 , -103.817
560 , -103.817
561 , -103.817
562 , -103.817
563 , -103.817
564 , -103.817
565 , -103.817
566 , -103.817
567 , -103.817
568 , -103.817
569 , -103.817
570 , -103.817
571 , -103.817
572 , -103.817
573 , -103.817
574 , -103.817
575 , -103.817
576 , -103.817
577 , -103.817
578 , -103.817
579 , -103.817
580 , -103.817
581 , -103.817
582 , -103.817
583 , -103.572
584 , -103.572
585 , -103.572
586 , -103.572
587 , -103.572
588 , -103.572
589 , -103.572
590 , -103.572
591 , -103.572
592 , -103.572
593 , -103.572
594 , -103.572
595 , -103.572
596 , -103.572
597 , -103.572
598 , -103.572
599 , -103.572
600 , -103.572
601 , -103.572
602 , -103.572
603 , -103.572
604 , -103.572
605 , -103.572
606 , -103.572
607 , -103.572
608 , -103.572
609 , -103.572
610 , -103.572
611 , -103.572
612 , -103.572
613 , -103.572
614 , -103.572
615 , -103.572
616 , -103.572
617 , -103.572
618 , -103.572
619 , -103.572
620 , -103.572
621 , -103.572
622 , -103.572
623 , -103.572
624 , -103.572
625 , -103.572
626 , -103.572
627 , -103.572
628 , -103.572
629 , -103.572
630 , -103.572
631 , -103.572
632 , -103.572
633 , -103.572
634 , -103.572
635 , -103.572
636 , -103.572
637 , -103.572
638 , -103.572
639 , -103.572
640 , -103.572
641 , -103.572
642 , -103.572
643 , -103.572
644 , -103.572
645 , -103.572
646 , -103.572
647 , -103.572
648 , -103.572
649 , -103.572
650 , -103.572
651 , -103.572
652 , -103.572
653 , -103.572
654 , -103.572
655 , -103.572
656 , -103.572
657 , -103.572
658 , -103.572
659 , -103.572
660 , -103.572
661 , -103.572
662 , -103.572
663 , -103.572
664 , -103.572
665 , -103.572
666 , -103.572
667 , -103.572
668 , -103.572
669 , -103.572
670 , -103.572
671 , -103.572
672 , -103.572
673 , -103.572
674 , -103.572
675 , -103.572
676 , -103.572
677 , -103.572
678 , -103.572
679 , -103.572
680 , -103.572
681 , -103.572
682 , -103.572
683 , -103.572
684 , -103.572
685 , -103.572
686 , -103.572
687 , -103.572
688 , -103.572
689 , -103.572
690 , -103.572
691 , -103.572
692 , -103.572
693 , -103.572
694 , -103.572
695 , -103.572
696 , -103.572
697 , -103.572
698 , -103.572
699 , -103.572
700 , -103.572
701 , -103.572
702 , -103.572
703 , -103.572
704 , -103.572
705 , -103.572
706 , -103.572
707 , -103.572
708 , -103.572
709 , -103.572
710 , -103.572
711 , -103.572
712 , -103.572
713 , -103.572
714 , -103.572
715 , -103.572
716 , -103.572
717 , -103.572
718 , -103.572
719 , -103.572
720 , -103.572
721 , -103.572
722 , -103.572
723 , -103.572
724 , -103.572
725 , -103.572
726 , -103.572
727 , -103.572
728 , -103.572
729 , -103.572
730 , -103.572
731 , -103.572
732 , -103.572
733 , -103.572
734 , -103.572
735 , -103.572
736 , -103.572
737 , -103.572
738 , -103.572
739 , -103.572
740 , -103.572
741 , -103.572
742 , -103.572
743 , -103.572
744 , -103.572
745 , -103.572
746 , -103.572
747 , -103.572
748 , -103.572
749 , -103.572
750 , -103.572
751 , -103.572
752 , -103.572
753 , -103.572
754 , -103.572
755 , -103.572
756 , -103.572
757 , -103.572
758 , -103.572
759 , -103.572
760 , -103.572
761 , -103.572
762 , -103.572
763 , -102.754
764 , -102.754
765 , -102.754
766 , -102.754
767 , -102.754
768 , -102.754
769 , -102.754
770 , -102.754
771 , -102.754
772 , -102.754
773 , -102.754
774 , -102.754
775 , -102.754
776 , -102.754
777 , -102.754
778 , -102.754
779 , -102.754
780 , -102.754
781 , -102.754
782 , -102.754
783 , -102.754
784 , -102.754
785 , -102.754
786 , -102.754
787 , -102.754
788 , -102.754
789 , -102.754
790 , -102.754
791 , -102.754
792 , -102.754
793 , -102.754
794 , -102.754
795 , -102.754
796 , -102.754
797 , -102.754
798 , -102.754
799 , -102.754
800 , -102.754
801 , -102.754
802 , -102.754
803 , -102.754
804 , -102.754
805 , -102.754
806 , -102.754
807 , -102.754
808 , -102.754
809 , -102.754
810 , -102.754
811 , -102.754
812 , -102.754
813 , -102.754
814 , -102.754
815 , -102.754
816 , -102.754
817 , -102.754
818 , -102.754
819 , -102.754
820 , -102.754
821 , -102.754
822 , -102.754
823 , -102.754
824 , -102.754
825 , -102.754
826 , -102.754
827 , -102.754
828 , -102.754
829 , -102.754
830 , -102.754
831 , -102.754
832 , -102.754
833 , -102.754
834 , -102.754
835 , -102.754
836 , -102.754
837 , -102.754
838 , -102.754
839 , -102.754
840 , -102.754
841 , -102.754
842 , -102.754
843 , -102.754
844 , -102.754
845 , -102.754
846 , -102.754
847 , -102.754
848 , -102.754
849 , -102.754
850 , -102.754
851 , -102.754
852 , -102.754
853 , -102.754
854 , -102.754
855 , -102.754
856 , -102.754
857 , -102.754
858 , -102.754
859 , -102.754
860 , -102.754
861 , -102.754
862 , -102.754
863 , -102.754
864 , -102.754
865 , -102.754
866 , -102.754
867 , -102.754
868 , -102.754
869 , -102.754
870 , -102.754
871 , -102.754
872 , -102.754
873 , -102.754
874 , -102.754
875 , -102.754
876 , -102.754
877 , -102.754
878 , -102.754
879 , -102.754
880 , -102.754
881 , -102.754
882 , -102.754
883 , -102.754
884 , -102.754
885 , -102.754
886 , -102.754
887 , -102.754
888 , -102.754
889 , -102.754
890 , -102.754
891 , -102.754
892 , -102.754
893 , -102.754
894 , -102.754
895 , -102.754
896 , -100.923
897 , -100.923
898 , -100.923
899 , -100.923
900 , -100.923
901 , -100.923
902 , -100.923
903 , -100.923
904 , -100.923
905 , -100.923
906 , -100.923
907 , -100.923
908 , -100.923
909 , -100.923
910 , -100.923
911 , -100.923
912 , -100.923
913 , -100.923
914 , -100.923
915 , -100.923
916 , -100.923
917 , -100.923
918 , -100.923
919 , -100.923
920 , -100.923
921 , -100.923
922 , -100.923
923 , -100.923
924 , -100.923
925 , -100.923
926 , -100.923
927 , -100.923
928 , -100.923
929 , -100.923
930 , -100.923
931 , -100.923
932 , -100.923
933 , -100.923
934 , -100.923
935 , -100.923
936 , -100.923
937 , -100.923
938 , -100.923
939 , -100.923
940 , -100.923
941 , -100.923
942 , -100.923
943 , -100.923
944 , -100.923
945 , -100.923
946 , -100.923
947 , -100.923
948 , -100.923
949 , -100.923
950 , -100.923
951 , -100.923
952 , -100.923
953 , -100.923
954 , -100.923
955 , -100.923
956 , -100.923
957 , -100.923
958 , -100.923
959 , -100.923
960 , -100.923
961 , -100.923
962 , -100.923
963 , -100.923
964 , -100.923
965 , -100.923
966 , -100.923
967 , -100.923
968 , -100.923
969 , -100.923
970 , -100.923
971 , -100.923
972 , -100.923
973 , -100.923
974 , -100.923
975 , -100.923
976 , -100.923
977 , -100.923
978 , -100.923
979 , -100.923
980 , -100.923
981 , -100.923
982 , -100.923
983 , -100.923
984 , -100.923
985 , -100.923
986 , -100.923
987 , -100.923
988 , -102.233
989 , -102.233
990 , -102.233
991 , -102.233
992 , -102.233
993 , -102.233
994 , -102.233
995 , -102.233
996 , -102.233
997 , -102.233
998 , -102.233
999 , -102.233
1000 , -102.233
1001 , -102.233
1002 , -102.233
1003 , -102.233
1004 , -102.233
1005 , -102.233
1006 , -102.233
1007 , -102.233
1008 , -102.233
1009 , -102.233
1010 , -102.233
1011 , -102.233
1012 , -102.233
1013 , -102.233
1014 , -102.233
1015 , -102.233
1016 , -102.233
1017 , -102.233
1018 , -102.233
1019 , -102.233
1020 , -102.233
1021 , -102.233
1022 , -102.233
1023 , -102.233
1024 , -102.233
1025 , -102.233
1026 , -102.233
1027 , -102.233
1028 , -102.233
1029 , -102.233
1030 , -102.233
1031 , -102.233
1032 , -102.233
1033 , -102.233
1034 , -102.233
1035 , -102.233
1036 , -102.233
1037 , -102.233
1038 , -102.233
1039 , -102.233
1040 , -102.233
1041 , -102.233
1042 , -102.233
1043 , -102.233
1044 , -102.233
1045 , -102.233
1046 , -102.233
1047 , -102.233
1048 , -102.233
1049 , -102.233
1050 , -102.233
1051 , -102.233
1052 , -102.233
1053 , -102.233
1054 , -102.233
1055 , -102.233
1056 , -102.233
1057 , -102.233
1058 , -102.233
1059 , -102.233
1060 , -102.233
1061 , -102.233
1062 , -102.233
1063 , -102.233
1064 , -102.233
1065 , -102.233
1066 , -102.233
1067 , -102.233
1068 , -102.233
1069 , -102.233
1070 , -102.233
1071 , -102.233
1072 , -102.233
1073 , -102.233
1074 , -102.233
1075 , -102.233
1076 , -102.233
1077 , -102.233
1078 , -102.233
1079 , -102.233
1080 , -102.233
1081 , -102.233
1082 , -102.233
1083 , -102.233
1084 , -102.233
1085 , -102.233
1086 , -102.233
1087 , -102.233
1088 , -102.233
1089 , -102.233
1090 , -102.233
1091 , -102.233
1092 , -102.233
1093 , -102.233
1094 , -102.233
1095 , -102.233
1096 , -102.233
1097 , -102.233
1098 , -102.233
1099 , -102.233
1100 , -102.233
1101 , -102.233
1102 , -102.233
1103 , -102.233
1104 , -102.233
1105 , -102.233
1106 , -102.233
1107 , -102.233
1108 , -102.233
1109 , -102.233
1110 , -102.233
1111 , -102.233
1112 , -102.233
1113 , -102.233
1114 , -102.233
1115 , -102.233
1116 , -102.233
1117 , -102.233
1118 , -102.233
1119 , -102.233
1120 , -102.233
1121 , -102.233
1122 , -102.233
1123 , -102.233
1124 , -102.233
1125 , -102.233
1126 , -102.233
1127 , -102.233
1128 , -102.233
1129 , -102.233
1130 , -102.233
1131 , -102.233
1132 , -102.233
1133 , -102.233
1134 , -102.233
1135 , -102.233
1136 , -102.233
1137 , -102.233
1138 , -102.233
1139 , -102.233
1140 , -102.233
1141 , -106.709
